[gd_scene load_steps=2 format=2]

[sub_resource type="RectangleShape2D" id=1]

[node name="enemy_blocker" type="Area2D"]
__meta__ = {
"_editor_description_": "Invisiable Block for enemies to collide with
"
}

[node name="CollisionShape2D" type="CollisionShape2D" parent="."]
shape = SubResource( 1 )
